…
### Miles

``` r
#join with attributes
business %>%
  inner_join(business_attr, by = "business_id")
```

    ## # A tibble: 152,041 x 94
    ##    business_id name  neighborhood address city  state postal_code latitude
    ##    <chr>       <chr> <chr>        <chr>   <chr> <chr> <chr>          <dbl>
    ##  1 FYWN1wneV1… "\"D… <NA>         "\"485… Ahwa… AZ    85044           33.3
    ##  2 He-G7vWjzV… "\"S… <NA>         "\"310… McMu… PA    15317           40.3
    ##  3 8DShNS-LuF… "\"S… <NA>         "\"500… Tempe AZ    85282           33.4
    ##  4 PfOCPjBrlQ… "\"B… <NA>         "\"581… Cuya… OH    44221           41.1
    ##  5 o9eMRCWt5P… "\"M… <NA>         "\"Ric… Stut… BW    70567           48.7
    ##  6 kCoE3jvEtg… "\"B… Summerlin    "\"262… Las … NV    89128           36.2
    ##  7 OD2hnuuTJI… "\"S… <NA>         "\"724… Las … NV    89128           36.2
    ##  8 EsMcGiZaQu… "\"A… <NA>         "\"261… Wexf… PA    15090           40.6
    ##  9 TGWhGNusxy… "\"D… <NA>         "\"\""  Hend… NV    89014           36.1
    ## 10 XOSRcvtaKc… "\"E… <NA>         "\"737… Hous… PA    15342           40.2
    ## # ... with 152,031 more rows, and 86 more variables: longitude <dbl>,
    ## #   stars <dbl>, review_count <int>, is_open <int>, categories <chr>,
    ## #   AcceptsInsurance <chr>, ByAppointmentOnly <chr>,
    ## #   BusinessAcceptsCreditCards <chr>, BusinessParking_garage <chr>,
    ## #   BusinessParking_street <chr>, BusinessParking_validated <chr>,
    ## #   BusinessParking_lot <chr>, BusinessParking_valet <chr>,
    ## #   HairSpecializesIn_coloring <chr>,
    ## #   HairSpecializesIn_africanamerican <chr>,
    ## #   HairSpecializesIn_curly <chr>, HairSpecializesIn_perms <chr>,
…
``` r
# ratings by alcohol & good for kids
# food %>% 
#   filter(!is.na(attributes.Alcohol), !is.na(attributes.GoodForKids)) %>% 
#   group_by(attributes.GoodForKids, attributes.Alcohol) %>% 
#   summarise(mean = mean(stars),
#             n = n())

# get top # cities
food %>% 
  count(city) %>% 
  arrange(desc(n))
```

    ## # A tibble: 831 x 2
    ##    city            n
    ##    <chr>       <int>
    ##  1 Toronto      9152
    ##  2 Las Vegas    7605
    ##  3 Phoenix      4738
    ##  4 Montréal     4031
    ##  5 Charlotte    3183
    ##  6 Pittsburgh   2876
    ##  7 Edinburgh    1957
    ##  8 Scottsdale   1881
    ##  9 Cleveland    1709
    ## 10 Mississauga  1569
    ## # ... with 821 more rows

``` r
# filter for toronto, non null neighborhoods
toronto_neighborhood <- food %>% 
  filter(city == "Toronto", neighborhood != "")

# look at top neighborhoods
toronto_neighborhood %>%
  count(neighborhood) %>% 
  arrange(desc(n))
```

    ## # A tibble: 73 x 2
    ##    neighborhood                      n
    ##    <chr>                         <int>
    ##  1 Downtown Core                   839
    ##  2 Scarborough                     516
    ##  3 Etobicoke                       325
    ##  4 Entertainment District          268
    ##  5 Leslieville                     228
    ##  6 Church-Wellesley Village        205
    ##  7 Kensington Market               205
    ##  8 Willowdale                      194
    ##  9 Mount Pleasant and Davisville   181
    ## 10 Yorkville                       181
    ## # ... with 63 more rows

``` r
# aggregate postal codes (heirarchical structure so just took two few numbers)
toronto_neighborhood <- toronto_neighborhood %>%
  mutate(postal_code_short = substr(postal_code, 1 , 2))

# summary stats by neighborhood
toronto_neighborhood %>% 
  group_by(neighborhood) %>% 
  summarise(mean = mean(stars), n = n()) %>% 
  filter(n > 10) %>% 
  arrange(desc(mean))
```

    ## # A tibble: 66 x 3
    ##    neighborhood         mean     n
    ##    <chr>               <dbl> <int>
    ##  1 Ossington Strip      3.93    66
    ##  2 Rosedale             3.88    16
    ##  3 Seaton Village       3.80    38
    ##  4 Little Portugal      3.79    51
    ##  5 Distillery District  3.79    29
    ##  6 Bickford Park        3.78    55
    ##  7 Roncesvalles         3.75   107
    ##  8 High Park            3.74    51
    ##  9 The Junction         3.71   154
    ## 10 Wallace Emerson      3.71    17
    ## # ... with 56 more rows
…
``` r
bus_park <- food_attr  
bus_park[bus_park == "Na"] <- NA
bus_park %>% 
  select(BusinessParking_street, BusinessParking_validated, BusinessParking_lot, BusinessParking_valet) %>% 
  drop_na()
```

    ## # A tibble: 34,336 x 4
    ##    BusinessParking_s… BusinessParking_v… BusinessParking… BusinessParking…
    ##    <chr>              <chr>              <chr>            <chr>           
    ##  1 False              False              False            False           
    ##  2 False              False              False            True            
    ##  3 False              True               False            False           
    ##  4 False              False              False            True            
    ##  5 False              False              False            True            
    ##  6 False              False              False            True            
    ##  7 False              False              False            True            
    ##  8 False              False              False            False           
    ##  9 True               False              False            True            
    ## 10 False              True               False            False           
    ## # ... with 34,326 more rows
…
    ## See spec(...) for full column specifications.

``` r
top_food <- food %>% 
  select(name, city, state, stars, categories) %>% 
  filter(stars >= 3.5) 
(top_food %>% 
  group_by(state)) %>% 
  count(stars)
```

    ## # A tibble: 118 x 3
    ## # Groups:   state [41]
    ##    state stars     n
    ##    <chr> <dbl> <int>
    ##  1 01     3.50     3
    ##  2 01     4.00     1
    ##  3 01     4.50     2
    ##  4 01     5.00     1
    ##  5 3      5.00     1
    ##  6 ABE    4.50     1
    ##  7 AZ     3.50  3020
    ##  8 AZ     4.00  3306
    ##  9 AZ     4.50  1734
    ## 10 AZ     5.00   647
    ## # ... with 108 more rows
…
